{
    "build_target": "amd64",
    "channel": "stable",
    "installations": [
        {
            "installation-paths": [
                {
                    "target-files": [
                        {
                            "sha256": "5b1233847c69ff14ee28e7e6c1cb9badbf9902985eb0a62ca11ce3415ba3f844",
                            "size": 1194328064,
                            "url": "http://dl.amnesia.boum.org/tails/stable/tails-amd64-3.15/tails-amd64-3.15.img"
                        }
                    ],
                    "type": "img"
                },
                {
                    "target-files": [
                        {
                            "sha256": "5b49056a4ca8eada90c177729b3fdd9c7fb64c94fd244cdac7560b7d3738d77e",
                            "size": 1184440320,
                            "url": "http://dl.amnesia.boum.org/tails/stable/tails-amd64-3.15/tails-amd64-3.15.iso"
                        }
                    ],
                    "type": "iso"
                }
            ],
            "version": "3.15"
        }
    ],
    "product-name": "Tails"
}
